@startuml

/' CONTROLLER '/

class GameActivity {
    panel: Panel
    model: Circuit

    void onCreate(Bundle savedInstanceState)
    void onResume()
    void onPause()
    void onRestoreInstanceState(Bundle savedInstanceState)
    void onSaveInstanceState(Bundle outState)
    void onBackPressed()
}


Loader <.. GameActivity : <<use>>
GameActivity "1" *- "1" Circuit : -model
Panel "1" -* "1" GameActivity : -view

/' --------------------------
            MODEL
 -------------------------- '/

class Circuit {
    circuit: Cell[][]

    drag(): boolean
    unlink(): boolean
}

Circuit "1" *-- "*" Cell : -grid

class Loader


/' --------------------------
        MODEl - CELL
 -------------------------- '/

abstract class Cell {
    type: char
    pos: Position
    connections: LinkedList<Dir>


    boolean isConnected();

    boolean connectCell(Dir dir);

    boolean unlinkCell(Dir dir);

    Dir getNextDirection(Dir dir);

    void resetCell();

    boolean drag(Dir dir);
}

Cell <|-- Node
Cell ..> Position : <<use>>
Cell <|-- Terminal
Cell <|-- Block
Cell .> Dir : <<use>>

class Terminal
abstract class Node
class Free
class Block
class HorLine
class VertLine
class Position {
    int line
    int col
}

enum Dir {
    LEFT
    RIGHT
    DOWN
    UP

    invertDir(): Dir
}


Node <|-- Free
Node <|-- HorLine
Node <|-- VertLine

Loader ..> Circuit : <<create>>

/' --------------------------
            VIEW
 -------------------------- '/

Panel "1" *-- "*" CellView : -grid
TilePanel <|-- Panel

class TilePanel {
}

class Panel {
    CellView[] cellViews
}

interface OnTileTouchListener {
    boolean onClick(int xTile, int yTile)
    boolean onDrag(int xFrom, int yFrom, int xTo, int yTo)
    void onDragEnd(int x, int y)
    void onDragCancel()
}

interface OnBeatListener {
    void onBeat(long beat, long time)
}

OnTileTouchListener <|. Panel
OnBeatListener <|.. Panel



interface Tile {
    void draw(Canvas canvas, int side)
    boolean setSelect(boolean selected)
}

class CellView {

    cell: Cell
    cellPaint, defaultPaint, highlightPaint: Paint
    selected: boolean

    void draw(Canvas canvas, int side)
    abstract void drawDefaultCell(Canvas canvas, int side)
    abstract void drawConnections(Canvas canvas, int side)
    void highlightCell(Canvas canvas, int side)
}

class TerminalView
class FreeView
class HorLineView
class VertLineView
class BlockView

CellView "1" *- "1" Cell : reference

Tile <|.CellView

CellView <|-- TerminalView
CellView <|-- FreeView
CellView <|-- HorLineView
CellView <|-- VertLineView
CellView <|-- BlockView

@enduml